[{"userId":32,"iban":"AZ49 ZWAC QTUC PIFU M1LJ 9UQ2 6XYC","balance":29007.43},
{"userId":28,"iban":"IL97 8149 3494 6028 5878 384","balance":4831.97},
{"userId":24,"iban":"BH55 VABI ZTPD URQB V2VC FI","balance":934.51},
{"userId":43,"iban":"BH39 HYBP IOC6 XPEZ 30IU CM","balance":27667.16},
{"userId":2,"iban":"AL18 3286 7351 EHYI TJZQ 6ISN RFHX","balance":28736.11},
{"userId":35,"iban":"MU04 MNCB 0250 4669 2922 8346 753J TO","balance":37576.16},
{"userId":42,"iban":"BG70 YGLE 1573 57P9 KCE2 TW","balance":49799.38},
{"userId":10,"iban":"DK44 5695 0995 5053 08","balance":31587.68},
{"userId":34,"iban":"AE17 3926 7879 0794 2499 104","balance":18815.02},
{"userId":31,"iban":"FR51 1339 5916 36CM PKXP BHRJ S57","balance":28420.54},
{"userId":35,"iban":"GR53 3604 445E WPGF IDLU H0JP TNG","balance":29407.65},
{"userId":31,"iban":"PL63 6620 0270 3472 3351 1985 2744","balance":36955.73},
{"userId":5,"iban":"SI06 6425 0729 7287 991","balance":29107.73},
{"userId":29,"iban":"FI44 7248 7784 6351 47","balance":28303.03},
{"userId":44,"iban":"SI44 6628 1807 7891 803","balance":38840.0},
{"userId":39,"iban":"LI20 4749 4GTT NFZN TTYC S","balance":7291.17},
{"userId":13,"iban":"GL37 1538 3749 8809 97","balance":47694.91},
{"userId":22,"iban":"BA52 6401 0531 9027 0208","balance":13924.29},
{"userId":40,"iban":"SE71 3395 7108 8785 1176 0145","balance":36991.12},
{"userId":18,"iban":"GB62 EBVR 4890 4539 7985 04","balance":49337.53},
{"userId":37,"iban":"RO19 EETH EO5O ZSGM GENC KJI8","balance":35060.71},
{"userId":26,"iban":"CY33 1022 1244 C8JK HPLR 3EEJ 7IFY","balance":16522.75},
{"userId":11,"iban":"FO46 4511 5089 9313 90","balance":10652.32},
{"userId":33,"iban":"BE96 2964 4492 2069","balance":8631.11},
{"userId":36,"iban":"IT54 F895 6256 670B 8JQB LSZH I3E","balance":7259.56},
{"userId":44,"iban":"FI30 6742 0021 9411 86","balance":3706.74},
{"userId":43,"iban":"FR35 9494 4265 35NH 7X9O TWCK S71","balance":18293.1},
{"userId":26,"iban":"IS94 5865 2138 7925 3096 9946 86","balance":28950.67},
{"userId":13,"iban":"SI95 9063 7003 8742 486","balance":2959.89},
{"userId":21,"iban":"FI27 3873 0225 2923 59","balance":36312.91},
{"userId":49,"iban":"AT13 1392 0606 6421 5199","balance":796.54},
{"userId":2,"iban":"BG92 EZOD 2411 838Z MXEN FI","balance":39302.74},
{"userId":42,"iban":"AL63 2632 5515 401K QZPV XE8M JHXI","balance":31989.84},
{"userId":37,"iban":"DO38 EWZR 4365 3107 5483 5141 8184","balance":43697.17},
{"userId":20,"iban":"TN12 0027 9736 6080 0158 0692","balance":42749.21},
{"userId":18,"iban":"MT62 YNSJ 4952 2MTT 4IPL BA0O XDIF CEB","balance":48789.38},
{"userId":39,"iban":"FI84 3421 9973 7298 67","balance":3774.28},
{"userId":40,"iban":"KZ66 046V 6AIF ML5B 73DV","balance":3609.17},
{"userId":44,"iban":"GE19 DU33 8797 0451 6044 68","balance":20325.33},
{"userId":36,"iban":"NL69 TSDC 7728 5764 31","balance":29410.61},
{"userId":35,"iban":"NO76 9993 3492 945","balance":13196.29},
{"userId":20,"iban":"DE67 9265 8451 2216 3408 62","balance":21054.95},
{"userId":19,"iban":"TR19 9660 64O4 NVKX IJFQ ZA3G 61","balance":14847.47},
{"userId":7,"iban":"SI60 5822 1147 6155 667","balance":545.03},
{"userId":44,"iban":"IL78 5980 7396 3349 1022 820","balance":23845.23},
{"userId":18,"iban":"GE81 UY26 1912 8973 7194 18","balance":7344.44},
{"userId":46,"iban":"GB63 RXKK 6543 3028 5050 08","balance":15534.7},
{"userId":9,"iban":"ME25 0884 1280 1581 5286 82","balance":31324.09},
{"userId":23,"iban":"FR24 8684 1516 49ME WSAB EEIS E17","balance":24710.27},
{"userId":43,"iban":"MC19 2291 6614 336D QAPM T49Z S24","balance":9038.19},
{"userId":16,"iban":"BG76 YWJY 2925 491V ILBR EB","balance":33768.62},
{"userId":27,"iban":"FR79 5392 2012 7083 4TLN LTG8 259","balance":30433.54},
{"userId":48,"iban":"CZ77 0425 8007 2189 1836 0885","balance":36429.49},
{"userId":35,"iban":"PL90 4180 2117 6690 3592 9740 1015","balance":24270.68},
{"userId":24,"iban":"GL54 3057 8731 2755 98","balance":1106.18},
{"userId":36,"iban":"BH45 DWYT DGDS 692O PH0H DB","balance":10769.77},
{"userId":19,"iban":"MT32 ZRGK 7012 2MOH BOVM FWUA 7GYH ULD","balance":33598.95},
{"userId":12,"iban":"KW25 XPVX AFCL FSF6 9TDV PVXG GQDE 2W","balance":49548.26},
{"userId":14,"iban":"SI87 4093 2164 2878 938","balance":10755.99},
{"userId":47,"iban":"FR70 4051 4071 24J1 URUW XR0Z R44","balance":49947.67},
{"userId":15,"iban":"CY09 1564 7062 MMRV 3BRQ UBHT 6QAE","balance":12610.18},
{"userId":28,"iban":"SI62 9416 4145 5517 545","balance":44121.85},
{"userId":44,"iban":"TN78 0354 9306 8119 4289 1316","balance":29517.29},
{"userId":1,"iban":"MK95 898W ICYR JORA G87","balance":40873.24},
{"userId":11,"iban":"FI59 0922 6314 3748 96","balance":27298.66},
{"userId":9,"iban":"ME76 5607 1406 8474 7318 59","balance":27690.33},
{"userId":27,"iban":"MD87 ORRN WDY2 PXEN 8ACM UWAK","balance":37452.01},
{"userId":4,"iban":"GR18 9896 385F 4V1N MLXL NPHR NMI","balance":34862.2},
{"userId":32,"iban":"BA41 3764 5436 6420 8674","balance":47623.39},
{"userId":23,"iban":"MT28 LIYI 2894 4MI0 KZ5K H9ZL TVTI RSD","balance":7470.83},
{"userId":6,"iban":"SM85 B174 9004 213K KEAS MNCW CIO","balance":2160.72},
{"userId":8,"iban":"FR05 3626 1583 88BK NJT8 9U0U U47","balance":49011.28},
{"userId":24,"iban":"GE71 QK57 8433 0911 1256 31","balance":40860.16},
{"userId":44,"iban":"ME18 6857 0617 5644 6961 70","balance":1169.07},
{"userId":16,"iban":"BR44 4773 8851 2607 9702 7150 165L U","balance":4866.62},
{"userId":7,"iban":"FR49 5640 4436 23PQ AQ9M LSIA I11","balance":38020.77},
{"userId":50,"iban":"LU26 3348 9BP2 DHIE TBSZ","balance":4727.6},
{"userId":4,"iban":"FR77 1616 8475 75FI GLT7 KPY7 V70","balance":27268.81},
{"userId":33,"iban":"KZ47 781Y K92V K0SX 6U4B","balance":22305.69},
{"userId":21,"iban":"LU04 526I AREA NBTD GOX1","balance":36595.04},
{"userId":23,"iban":"FR04 5254 4389 10WP HYVH LY05 V42","balance":6176.11},
{"userId":23,"iban":"FR97 0873 1464 88N8 JYHT HPUA L78","balance":28505.4},
{"userId":24,"iban":"SM71 T533 9128 1744 EQQ0 YKQF 3HA","balance":17672.4},
{"userId":45,"iban":"PS15 ZJXW KQU1 DIGM KB2S JTK6 9BCJ W","balance":17765.64},
{"userId":14,"iban":"LV75 IUHI S0AJ EKRS 77YN W","balance":10116.28},
{"userId":14,"iban":"GB70 VNAR 8723 2664 7224 35","balance":3670.64},
{"userId":49,"iban":"VG34 QOYZ 3144 0938 7830 7903","balance":4667.82},
{"userId":23,"iban":"BE02 8384 2281 2128","balance":28004.82},
{"userId":30,"iban":"LI80 7534 7EVH RR2T BFQZ P","balance":29737.9},
{"userId":24,"iban":"FR28 7226 7982 79EP 2ZXG ONVR P13","balance":49176.72},
{"userId":10,"iban":"FR56 0057 1164 55JR KRYF WM9U Z51","balance":22518.07},
{"userId":14,"iban":"FR33 0348 4352 28YW DVIO IDWF 391","balance":15498.46},
{"userId":36,"iban":"CR11 7495 6865 3090 1161 6","balance":25409.3},
{"userId":21,"iban":"DE60 3486 7052 6816 6676 74","balance":17595.34},
{"userId":26,"iban":"BR95 3189 1730 5528 4246 5259 623V Q","balance":15245.23},
{"userId":45,"iban":"ME66 3502 8681 4885 9933 72","balance":21667.45},
{"userId":49,"iban":"ES41 8477 9918 5963 1144 3239","balance":33734.7},
{"userId":16,"iban":"HR47 0657 9702 6301 5397 6","balance":24495.69},
{"userId":17,"iban":"MR21 4553 1345 2893 2768 0834 950","balance":17081.89},
{"userId":12,"iban":"FR84 5520 1240 172E MTC9 4S1K M16","balance":20542.82}]